<?xml version="1.0" encoding="UTF-8" standalone="no"?>
<!-- Generator: Adobe Illustrator 14.0.0, SVG Export Plug-In . SVG Version: 6.00 Build 43363)  -->
<svg xmlns:rdf="http://www.w3.org/1999/02/22-rdf-syntax-ns#" xmlns="http://www.w3.org/2000/svg" enable-background="new 0 0 566.93 283.46" xml:space="preserve" height="150" width="300" version="1.1" y="0px" x="0px" xmlns:cc="http://creativecommons.org/ns#" xmlns:dc="http://purl.org/dc/elements/1.1/" viewBox="0 0 300 150.00001"><metadata><rdf:RDF><cc:Work rdf:about=""><dc:format>image/svg+xml</dc:format><dc:type rdf:resource="http://purl.org/dc/dcmitype/StillImage"/><dc:title/></cc:Work></rdf:RDF></metadata><g transform="translate(0 -133)" display="none"><g display="inline"><path d="m376 133c-1.05 2.5 0.119 5.38 2.62 6.43-2.5-1.05-5.38 0.119-6.43 2.62 1.05-2.5-0.119-5.38-2.62-6.43 2.5 1.05 5.38-0.117 6.43-2.62z"/><path d="m325 115c-1.05 2.5 0.119 5.38 2.62 6.43-2.5-1.05-5.38 0.118-6.43 2.61 1.05-2.5-0.117-5.38-2.62-6.43 2.5 1.05 5.38-0.118 6.43-2.62z"/><path d="m286 118c-1.05 2.5 0.118 5.38 2.62 6.43-2.5-1.05-5.38 0.119-6.43 2.62 1.05-2.5-0.121-5.38-2.62-6.43 2.5 1.05 5.38-0.117 6.43-2.62z"/><path d="m239 125c-1.06 2.5 0.116 5.38 2.62 6.43-2.5-1.05-5.38 0.118-6.43 2.62 1.05-2.5-0.119-5.38-2.62-6.43 2.5 1.05 5.38-0.118 6.43-2.62z"/><path d="m221 156c-1.05 2.5 0.119 5.38 2.62 6.43-2.5-1.06-5.38 0.117-6.43 2.61 1.05-2.5-0.118-5.38-2.62-6.43 2.5 1.05 5.38-0.116 6.43-2.62z"/><path d="m174 147c-1.05 2.5 0.119 5.38 2.62 6.43-2.5-1.05-5.38 0.118-6.43 2.62 1.05-2.5-0.121-5.38-2.62-6.43 2.5 1.05 5.38-0.117 6.43-2.62z"/><path d="m172 107c-1.05 2.5 0.119 5.38 2.62 6.43-2.5-1.05-5.38 0.12-6.43 2.62 1.05-2.5-0.118-5.38-2.62-6.43 2.5 1.05 5.38-0.117 6.43-2.62z"/><path d="m245 147-1.25 7c0.92-0.658 2.37-0.921 3.12-0.921 4.37 0 6.67 3.25 6.67 7.16 0 9.99-9.66 12-17 8.97l3.91-22.2h4.5zm-3.45 19.3c0.789 0.296 1.58 0.362 2.3 0.362 3.16-0.033 5.19-2.73 5.19-5.95 0-2.5-1.44-3.68-3.58-3.68-0.625 0-1.54 0.164-2.33 0.658l-1.58 8.61z"/><path d="m261 171c-3.88 0.624-6.67-0.756-5.85-5.36l3.12-17.7h4.5l-3.12 17.7c-0.164 0.854 0.098 1.84 2 1.68l-0.656 3.68z"/><path d="m263 163 1.71-9.63h4.5l-1.68 9.43c-0.592 3.32 2.53 4.47 5.85 3.45l2.27-12.9h4.5l-2.79 15.9c-6.31 2.33-15.8 1.97-14.4-6.31z"/><path d="m295 168c-2.4 2.2-4.77 3.12-7.2 3.12-4.9 0-7.13-3.55-7.13-7.26 0-4.9 3.94-10.1 10.2-10.1 4.24-0.033 6.97 2.66 6.97 6.74 0 1.58-0.395 2.63-1.05 3.71h-11.7c-0.065 3.75 4.7 3.98 7.86 1.54l2.14 2.24zm-1.54-7.23c0.197-2.4-1.58-3.12-3.29-3.12-1.74 0-3.78 0.887-4.54 3.12h7.82z"/><g fill="#58595b"><path d="m310 165c0 3.65-3.88 5.39-6.54 5.39-1.97 0-3.71-0.821-4.67-2.4 0.395-0.328 0.888-0.756 1.22-1.05 1.51 2.76 7.23 2.66 8.25-1.38 0.296-1.87-1.81-2.83-3.25-3.12-2.46-0.428-4.57-1.78-4.11-4.5 0.854-4.9 7.76-6.11 10.4-3.16l-1.22 1.12c-1.84-2.17-7.53-1.31-7.53 2.37 0 1.68 1.77 2.4 3.06 2.66 2.27 0.492 4.4 1.68 4.4 4.08z"/><path d="m311 175c1.87 0.066 2.76-0.592 3.52-1.94l1.41-2.53-3.88-16.7h1.84l3.25 15 8.25-15h1.84l-11.2 19.8c-1.22 2.24-2.89 2.79-4.77 2.79h-0.525l0.262-1.42z"/><path d="m336 165c0 3.65-3.88 5.39-6.54 5.39-1.97 0-3.72-0.821-4.67-2.4 0.395-0.328 0.888-0.756 1.22-1.05 1.51 2.76 7.23 2.66 8.25-1.38 0.296-1.87-1.81-2.83-3.25-3.12-2.46-0.428-4.57-1.78-4.11-4.5 0.854-4.9 7.76-6.11 10.4-3.16l-1.22 1.12c-1.84-2.17-7.53-1.31-7.53 2.37 0 1.68 1.78 2.4 3.06 2.66 2.27 0.492 4.4 1.68 4.4 4.08z"/><path d="m343 171c-2.93 0.133-4.83-1.41-4.24-4.67l1.87-10.7h-2.47l0.264-1.41h2.46l0.689-4.08 1.74-0.362-0.756 4.44h3.39l-0.264 1.41h-3.38l-1.87 10.7c-0.362 1.97 0.723 3.15 2.86 3.12l-0.295 1.54z"/><path d="m358 167 1.12 0.888c-1.91 1.94-4.34 2.89-6.84 2.89-5.36 0-7.26-4.57-6.51-8.71 0.756-4.17 4.27-8.38 9.5-8.41 4.01-0.032 6.48 2.89 6.48 6.7 0 1.68-0.296 1.94-0.395 2.37h-14.1c-0.395 3.65 1.38 6.44 5.32 6.44 1.88 0 3.98-0.689 5.42-2.17zm2.14-5.72c0.461-3.58-1.68-5.98-5.13-6.05-3.88 0.033-6.48 2.7-7.53 6.05h12.7z"/><path d="m376 157c1.94-2.93 4.21-3.39 6.41-3.39 3.58 0 6.15 1.94 5.26 7l-1.74 9.93h-1.71l1.74-9.93c0.689-3.88-1.28-5.46-3.81-5.46-2.6 0-5.19 1.18-5.92 5.13l-1.81 10.3h-1.64l1.81-10.3c1.18-5-4.64-6.15-8.71-4.64l-2.63 14.9h-1.71l2.83-16.1c3.68-1.41 10.6-1.71 11.6 2.53z"/><path d="m400 165c0 3.65-3.88 5.39-6.54 5.39-1.97 0-3.71-0.822-4.67-2.4 0.393-0.328 0.887-0.756 1.22-1.05 1.51 2.76 7.23 2.66 8.25-1.38 0.297-1.87-1.81-2.83-3.25-3.12-2.46-0.427-4.57-1.77-4.11-4.5 0.854-4.9 7.76-6.11 10.4-3.16l-1.22 1.12c-1.84-2.17-7.53-1.31-7.53 2.37 0 1.68 1.78 2.4 3.06 2.66 2.27 0.493 4.4 1.68 4.4 4.08z"/></g></g><rect display="inline" height="28.3" width="28.3" y="10" x="539"/><rect display="inline" height="28.3" width="28.3" y="40.3" x="539" fill="#58595b"/></g><g transform="translate(114 -456)"><g transform="matrix(1.11 0 0 1.11 -115 481)"><path fill="#ea4335" d="m116 47.2c0 12.8-9.99 22.2-22.2 22.2-12.6 0-22.6-9.4-22.6-22.2 0-12.9 10-22.2 22.3-22.2s22.2 9.32 22.2 22.2zm-9.74 0c0-7.98-5.79-13.4-12.5-13.4-6.72 0-12.5 5.46-12.5 13.4 0 7.9 5.79 13.4 12.5 13.4 6.72 0 12.5-5.55 12.5-13.4z"/><path fill="#fbbc05" d="m164 47.2c0 12.8-9.99 22.2-22.2 22.2-12.3 0-22.2-9.41-22.2-22.2s9.99-22.2 22.2-22.2c12.3 0 22.2 9.32 22.2 22.2zm-9.74 0c0-7.98-5.79-13.4-12.5-13.4-6.72 0-12.5 5.46-12.5 13.4 0 7.9 5.79 13.4 12.5 13.4 6.72 0 12.5-5.55 12.5-13.4z"/><path fill="#4285f4" d="m210 26.3v39.8c0 16.4-9.66 23.1-21.1 23.1-10.8 0-17.2-7.19-19.7-13.1l8.48-3.53c1.51 3.61 5.21 7.87 11.2 7.87 7.31 0 11.8-4.51 11.8-13v-3.19h-0.34c-2.18 2.69-6.38 5.04-11.7 5.04-11.1 0-21.2-9.66-21.2-22.1 0-12.5 10.2-22.3 21.2-22.3 5.29 0 9.49 2.35 11.7 4.96h0.34v-3.61h9.25zm-8.56 20.9c0-7.81-5.21-13.5-11.8-13.5-6.72 0-12.4 5.71-12.4 13.5 0 7.73 5.63 13.4 12.4 13.4 6.63 0 11.8-5.63 11.8-13.4z"/><path fill="#34a853" d="m225 3v65h-9.5v-65h9.5z"/><path fill="#ea4335" d="m262 54.5 7.56 5.04c-2.44 3.61-8.32 9.83-18.5 9.83-12.6 0-22-9.74-22-22.2 0-13.2 9.49-22.2 20.9-22.2 11.5 0 17.1 9.16 19 14.1l1 2.6-30 12.3c2.27 4.45 5.8 6.72 10.8 6.72 4.96 0 8.4-2.44 10.9-6.14zm-23.3-7.98 19.8-8.23c-1.09-2.77-4.37-4.7-8.23-4.7-4.95 0-11.8 4.37-11.6 12.9z"/><path fill="#4285f4" d="m35.3 41.4v-9.4h31.7c0.31 1.64 0.47 3.58 0.47 5.68 0 7.06-1.93 15.8-8.15 22-6.05 6.3-13.8 9.66-24 9.66-19 0-34.9-15.5-34.9-34.5-0.04-19 15.9-34.4 34.9-34.4 10.5 0 18 4.12 23.6 9.49l-6.6 6.61c-4.1-3.8-9.5-6.72-17-6.72-13.9 0-24.7 11.2-24.7 25 0 13.9 10.8 25 24.7 25 8.99 0 14.1-3.61 17.4-6.89 2.66-2.66 4.41-6.46 5.1-11.6l-22.5 0.01z"/></g></g></svg>
